{
  "project_info": {
    "project_number": "1034167244395",
    "firebase_url": "https://app-f225e.firebaseio.com",
    "project_id": "app-f225e",
    "storage_bucket": "app-f225e.appspot.com"
  },
  "client": [
    {
      "client_info": {
        "mobilesdk_app_id": "1:1034167244395:android:f59f55ae6e32334a",
        "android_client_info": {
          "package_name": "com.tapper.sixfourseven"
        }
      },
      "oauth_client": [
        {
          "client_id": "1034167244395-1m4tvve5gmpdo6pbgn2a3pnc4pno5fvj.apps.googleusercontent.com",
          "client_type": 3
        }
      ],
      "api_key": [
        {
          "current_key": "AIzaSyDta3NSqHAtgf_xV613NK8BypfjRPMv3Hk"
        }
      ],
      "services": {
        "analytics_service": {
          "status": 1
        },
        "appinvite_service": {
          "status": 1,
          "other_platform_oauth_client": []
        },
        "ads_service": {
          "status": 2
        }
      }
    }
  ],
  "configuration_version": "1"
}